<?xml version="1.0" encoding="UTF-8" standalone="no"?>
<!-- Created with Inkscape (http://www.inkscape.org/) -->

<svg
   width="210mm"
   height="148mm"
   viewBox="0 0 210 148"
   version="1.1"
   id="svg5"
   inkscape:version="1.2 (dc2aedaf03, 2022-05-15)"
   sodipodi:docname="1.svg"
   xmlns:inkscape="http://www.inkscape.org/namespaces/inkscape"
   xmlns:sodipodi="http://sodipodi.sourceforge.net/DTD/sodipodi-0.dtd"
   xmlns="http://www.w3.org/2000/svg"
   xmlns:svg="http://www.w3.org/2000/svg">
  <sodipodi:namedview
     id="namedview7"
     pagecolor="#ffffff"
     bordercolor="#000000"
     borderopacity="0.25"
     inkscape:showpageshadow="2"
     inkscape:pageopacity="0.0"
     inkscape:pagecheckerboard="0"
     inkscape:deskcolor="#d1d1d1"
     inkscape:document-units="mm"
     showgrid="true"
     inkscape:zoom="0.73851712"
     inkscape:cx="424.4993"
     inkscape:cy="353.4109"
     inkscape:window-width="1498"
     inkscape:window-height="843"
     inkscape:window-x="28"
     inkscape:window-y="9"
     inkscape:window-maximized="0"
     inkscape:current-layer="layer1">
    <inkscape:grid
       type="xygrid"
       id="grid67" />
  </sodipodi:namedview>
  <defs
     id="defs2">
    <rect
       x="60"
       y="160"
       width="700"
       height="140"
       id="rect424" />
    <rect
       x="60"
       y="160"
       width="700"
       height="140"
       id="rect366" />
    <rect
       x="580"
       y="100"
       width="200"
       height="60"
       id="rect360" />
    <rect
       x="580"
       y="100"
       width="200"
       height="60"
       id="rect354" />
    <rect
       x="420"
       y="100"
       width="160.00001"
       height="60.000002"
       id="rect348" />
    <rect
       x="420"
       y="100"
       width="120"
       height="60"
       id="rect290" />
    <rect
       x="80"
       y="100"
       width="340.00001"
       height="60.000002"
       id="rect284" />
    <rect
       x="60"
       y="120"
       width="300"
       height="80"
       id="rect224" />
    <rect
       x="40"
       y="20"
       width="320"
       height="60.000001"
       id="rect168" />
  </defs>
  <g
     inkscape:label="Layer 1"
     inkscape:groupmode="layer"
     id="layer1">
    <path
       style="fill:#000080;stroke-width:3.06501"
       d="M 42.333333,84.666666 H 164.04166"
       id="path132" />
    <path
       style="fill:#000080;stroke-width:3.06501"
       d="M 42.333333,105.83333 H 164.04166"
       id="path242" />
    <path
       style="fill:#000080;stroke-width:3.06501"
       d="M 100.54167,137.58333 V 31.75"
       id="path244" />

    <text
       xml:space="preserve"
       transform="scale(0.26458333)"
       id="text222"
       style="fill:#000000;stroke-width:11.58425197;-inkscape-font-specification:'sans-serif Bold';font-family:sans-serif;font-weight:bold;font-size:29.33333333px;white-space:pre;shape-inside:url(#rect224)" />

    <text
       xml:space="preserve"
       transform="scale(0.26458333)"
       id="text288"
       style="fill:#ff0000;stroke-width:11.58425197;-inkscape-font-specification:'sans-serif Bold';font-family:sans-serif;font-weight:bold;font-size:29.33333333px;white-space:pre;shape-inside:url(#rect290)" />
    <text
       xml:space="preserve"
       transform="matrix(0.26458333,0,0,0.26458333,-5.7464173,-1.3642559)"
       id="text346"
       style="font-weight:bold;font-size:29.3333px;font-family:sans-serif;-inkscape-font-specification:'sans-serif Bold';white-space:pre;shape-inside:url(#rect348);fill:#ff0000;stroke-width:11.5843"><tspan
         x="420"
         y="128.87497"
         id="tspan516">GD_JR22_HANCH.svg</tspan></text>
    <text
       xml:space="preserve"
       transform="scale(0.26458333)"
       id="text352"
       style="fill:#000000;stroke-width:11.58425197;-inkscape-font-specification:'sans-serif Bold';font-family:sans-serif;font-weight:bold;font-size:29.33333333px;white-space:pre;shape-inside:url(#rect354)" />
  </g>
</svg>
